{
  "project_info": {
    "project_number": "968038222989",
    "firebase_url": "https://tripatch-eb563.firebaseio.com",
    "project_id": "tripatch-eb563",
    "storage_bucket": "tripatch-eb563.appspot.com"
  },
  "client": [
    {
      "client_info": {
        "mobilesdk_app_id": "1:968038222989:android:25446f73678fbe4c81a6c4",
        "android_client_info": {
          "package_name": "com.application.tripatch"
        }
      },
      "oauth_client": [
        {
          "client_id": "968038222989-tjtjg77iakcrefbo31660ed20b1job3d.apps.googleusercontent.com",
          "client_type": 1,
          "android_info": {
            "package_name": "com.application.tripatch",
            "certificate_hash": "e4fb751df277a6b258a60d29c71700bc86fe65f7"
          }
        },
        {
          "client_id": "968038222989-tvsmma1igb0k4tfu365663v6pq2v2vem.apps.googleusercontent.com",
          "client_type": 3
        }
      ],
      "api_key": [
        {
          "current_key": "AIzaSyAt9bo6z0vm78AJaYXWou8q8UqRY2NzEag"
        }
      ],
      "services": {
        "appinvite_service": {
          "other_platform_oauth_client": [
            {
              "client_id": "968038222989-tvsmma1igb0k4tfu365663v6pq2v2vem.apps.googleusercontent.com",
              "client_type": 3
            }
          ]
        }
      }
    }
  ],
  "configuration_version": "1"
}